…
After trying to make a graph, I realized that I maybe want the data
structured differently.

``` r
df <- df %>% 
  pivot_longer(
    mask:nomask, 
    names_to = "mask", 
    values_to = "cases")
df
```

    ## # A tibble: 46 × 3
    ##    date      mask   cases
    ##    <chr>     <chr>  <dbl>
    ##  1 7/12/2020 mask    25.4
    ##  2 7/12/2020 nomask   9.8
    ##  3 7/13/2020 mask    19.7
    ##  4 7/13/2020 nomask   9.1
    ##  5 7/14/2020 mask    19.6
    ##  6 7/14/2020 nomask   9.2
    ##  7 7/15/2020 mask    20.5
    ##  8 7/15/2020 nomask   9.8
    ##  9 7/16/2020 mask    19.7
    ## 10 7/16/2020 nomask   9.9
    ## # ℹ 36 more rows
…
